…
litters_df = janitor::clean_names(litters_df)
#把原来表头的特殊符号都去掉了 / 从janitor这个package中用clean_names这个code
```

## Take a look at the data

printing in the console.

``` r
litters_df
```

    ## # A tibble: 49 × 8
    ##    group litter_number   gd0_weight gd18_weight gd_of_…¹ pups_…² pups_…³ pups_…⁴
    ##    <chr> <chr>                <dbl>       <dbl>    <dbl>   <dbl>   <dbl>   <dbl>
    ##  1 Con7  #85                   19.7        34.7       20       3       4       3
    ##  2 Con7  #1/2/95/2             27          42         19       8       0       7
    ##  3 Con7  #5/5/3/83/3-3         26          41.4       19       6       0       5
    ##  4 Con7  #5/4/2/95/2           28.5        44.1       19       5       1       4
    ##  5 Con7  #4/2/95/3-3           NA          NA         20       6       0       6
    ##  6 Con7  #2/2/95/3-2           NA          NA         20       6       0       4
    ##  7 Con7  #1/5/3/83/3-3/2       NA          NA         20       9       0       9
    ##  8 Con8  #3/83/3-3             NA          NA         20       9       1       8
    ##  9 Con8  #2/95/3               NA          NA         20       8       0       8
    ## 10 Con8  #3/5/2/2/95           28.5        NA         20       8       0       8
    ## # … with 39 more rows, and abbreviated variable names ¹​gd_of_birth,
    ## #   ²​pups_born_alive, ³​pups_dead_birth, ⁴​pups_survive
…
``` r
#"./"--> starting from the project folder 
```

Read in a SAS file.

``` r
library(haven) # library to read SAS
pulse_df = read_sas("./data/public_pulse_data.sas7bdat")
pulse_df
```

    ## # A tibble: 1,087 × 7
    ##       ID   age Sex    BDIScore_BL BDIScore_01m BDIScore_06m BDIScore_12m
    ##    <dbl> <dbl> <chr>        <dbl>        <dbl>        <dbl>        <dbl>
    ##  1 10003  48.0 male             7            1            2            0
    ##  2 10015  72.5 male             6           NA           NA           NA
    ##  3 10022  58.5 male            14            3            8           NA
    ##  4 10026  72.7 male            20            6           18           16
    ##  5 10035  60.4 male             4            0            1            2
    ##  6 10050  84.7 male             2           10           12            8
    ##  7 10078  31.3 male             4            0           NA           NA
    ##  8 10088  56.9 male             5           NA            0            2
    ##  9 10091  76.0 male             0            3            4            0
    ## 10 10092  74.2 female          10            2           11            6
    ## # … with 1,077 more rows
…
``` r
litters_readr # easy to read 
```

    ## # A tibble: 49 × 8
    ##    Group `Litter Number` `GD0 weight` GD18 wei…¹ GD of…² Pups …³ Pups …⁴ Pups …⁵
    ##    <chr> <chr>                  <dbl>      <dbl>   <dbl>   <dbl>   <dbl>   <dbl>
    ##  1 Con7  #85                     19.7       34.7      20       3       4       3
    ##  2 Con7  #1/2/95/2               27         42        19       8       0       7
    ##  3 Con7  #5/5/3/83/3-3           26         41.4      19       6       0       5
    ##  4 Con7  #5/4/2/95/2             28.5       44.1      19       5       1       4
    ##  5 Con7  #4/2/95/3-3             NA         NA        20       6       0       6
    ##  6 Con7  #2/2/95/3-2             NA         NA        20       6       0       4
    ##  7 Con7  #1/5/3/83/3-3/2         NA         NA        20       9       0       9
    ##  8 Con8  #3/83/3-3               NA         NA        20       9       1       8
    ##  9 Con8  #2/95/3                 NA         NA        20       8       0       8
    ## 10 Con8  #3/5/2/2/95             28.5       NA        20       8       0       8
    ## # … with 39 more rows, and abbreviated variable names ¹​`GD18 weight`,
    ## #   ²​`GD of Birth`, ³​`Pups born alive`, ⁴​`Pups dead @ birth`, ⁵​`Pups survive`
